<?xml version="1.0" encoding="utf-8"?>
<!-- Generator: Adobe Illustrator 22.0.1, SVG Export Plug-In . SVG Version: 6.00 Build 0)  -->
<svg version="1.1" id="Layer_1" xmlns="http://www.w3.org/2000/svg" xmlns:xlink="http://www.w3.org/1999/xlink" x="0px" y="0px"
	 viewBox="0 0 10.7 10.7" style="enable-background:new 0 0 10.7 10.7;" xml:space="preserve">
<style type="text/css">
	.st0{fill:#E25B80;}
</style>
<polygon class="st0" points="10.7,2.1 8.6,0 5.4,3.2 2.1,0 0,2.1 3.2,5.4 0,8.6 2.1,10.7 5.4,7.5 8.6,10.7 10.7,8.6 7.5,5.4 "/>
</svg>
